EESchema Schematic File Version 5
EELAYER 34 0
EELAYER END
$Descr USLetter 11000 8500
encoding utf-8
Sheet 1 1
Title "TASPup Cross-Compatibility Board"
Date "2017-06-28"
Rev "Rev 1"
Comp "MediaMagnet"
Comment1 ""
Comment2 ""
Comment3 "NES Controller, TASPup and TAS-Link/PSOC connections"
Comment4 "Cross compatible board allows link of:"
Comment5 ""
Comment6 ""
Comment7 ""
Comment8 ""
Comment9 ""
$EndDescr
Connection ~ 2100 3200
Connection ~ 2100 3400
Connection ~ 4900 2850
Connection ~ 6400 2850
NoConn ~ 6800 3500
NoConn ~ 6500 2800
NoConn ~ 6050 5250
NoConn ~ 2750 4150
NoConn ~ 2750 4650
NoConn ~ 4000 4150
NoConn ~ 4000 4650
NoConn ~ 5400 4600
Wire Wire Line
	1850 3250 2050 3250
Wire Wire Line
	2050 3200 2100 3200
Wire Wire Line
	2050 3250 2050 3200
Wire Wire Line
	2050 3350 1850 3350
Wire Wire Line
	2050 3400 2050 3350
Wire Wire Line
	2100 3200 2200 3200
Wire Wire Line
	2100 3400 2050 3400
Wire Wire Line
	2100 3400 2200 3400
Wire Wire Line
	2400 4350 2750 4350
Wire Wire Line
	2400 5050 2400 4350
Wire Wire Line
	2450 3050 2450 4050
Wire Wire Line
	2450 4050 2750 4050
Wire Wire Line
	2500 4550 2750 4550
Wire Wire Line
	2500 4950 2500 4550
Wire Wire Line
	2550 2750 4300 2750
Wire Wire Line
	2550 3850 2550 2750
Wire Wire Line
	2600 4450 2750 4450
Wire Wire Line
	2600 5900 2600 4450
Wire Wire Line
	2650 2950 2650 3950
Wire Wire Line
	2650 3950 2750 3950
Wire Wire Line
	2750 3850 2550 3850
Wire Wire Line
	3750 3000 3750 4050
Wire Wire Line
	3750 4050 4000 4050
Wire Wire Line
	3750 4450 3850 4450
Wire Wire Line
	3750 4850 3750 4450
Wire Wire Line
	3850 3200 6800 3200
Wire Wire Line
	3850 3950 3850 3200
Wire Wire Line
	3850 4550 4000 4550
Wire Wire Line
	3850 4900 3850 4550
Wire Wire Line
	3900 2900 3900 3950
Wire Wire Line
	3900 3950 4000 3950
Wire Wire Line
	3900 4350 4000 4350
Wire Wire Line
	3900 4800 3900 4350
Wire Wire Line
	3950 2800 3950 3850
Wire Wire Line
	3950 3850 4000 3850
Wire Wire Line
	3950 4450 4000 4450
Wire Wire Line
	3950 4750 3950 4450
Wire Wire Line
	4000 5100 5250 5100
Wire Wire Line
	4000 5450 4000 5100
Wire Wire Line
	4150 2600 4150 2850
Wire Wire Line
	4150 2850 4900 2850
Wire Wire Line
	4150 4800 3900 4800
Wire Wire Line
	4150 5450 4150 4800
Wire Wire Line
	4250 4800 4250 4850
Wire Wire Line
	4250 4850 3750 4850
Wire Wire Line
	4300 2750 4300 2600
Wire Wire Line
	4350 5050 2400 5050
Wire Wire Line
	4350 5450 4350 5050
Wire Wire Line
	4500 2600 4500 2800
Wire Wire Line
	4500 2800 3950 2800
Wire Wire Line
	4650 2600 4650 3800
Wire Wire Line
	4650 3800 5400 3800
Wire Wire Line
	4900 2400 4900 2850
Wire Wire Line
	4900 2850 6400 2850
Wire Wire Line
	5100 2400 4900 2400
Wire Wire Line
	5100 2550 5100 2950
Wire Wire Line
	5100 2950 2650 2950
Wire Wire Line
	5100 3250 6800 3250
Wire Wire Line
	5100 3950 5100 3250
Wire Wire Line
	5100 4450 6650 4450
Wire Wire Line
	5150 5900 2600 5900
Wire Wire Line
	5250 3450 5250 4000
Wire Wire Line
	5250 4000 5400 4000
Wire Wire Line
	5250 4300 5400 4300
Wire Wire Line
	5250 5100 5250 4300
Wire Wire Line
	5300 3600 5300 3900
Wire Wire Line
	5300 3900 5400 3900
Wire Wire Line
	5300 4400 5400 4400
Wire Wire Line
	5300 5900 5300 4400
Wire Wire Line
	5350 4500 5400 4500
Wire Wire Line
	5350 4700 5350 4500
Wire Wire Line
	5600 2400 5750 2400
Wire Wire Line
	5600 2550 5600 3600
Wire Wire Line
	5600 3600 5300 3600
Wire Wire Line
	5650 5750 5750 5750
Wire Wire Line
	5650 5900 5300 5900
Wire Wire Line
	5750 2400 5750 2900
Wire Wire Line
	5750 2900 3900 2900
Wire Wire Line
	5750 4750 3950 4750
Wire Wire Line
	5750 5750 5750 4750
Wire Wire Line
	6100 2800 6100 3450
Wire Wire Line
	6100 3450 5250 3450
Wire Wire Line
	6200 2800 6200 3050
Wire Wire Line
	6200 3050 2450 3050
Wire Wire Line
	6250 4900 3850 4900
Wire Wire Line
	6250 4900 6250 5250
Wire Wire Line
	6300 2800 6300 3000
Wire Wire Line
	6300 3000 3750 3000
Wire Wire Line
	6350 4950 2500 4950
Wire Wire Line
	6350 5250 6350 4950
Wire Wire Line
	6400 2850 6400 2800
Wire Wire Line
	6400 2850 6400 3400
Wire Wire Line
	6400 3400 6800 3400
Wire Wire Line
	6450 4700 5350 4700
Wire Wire Line
	6450 5250 6450 4700
Wire Wire Line
	6500 3100 6800 3100
Wire Wire Line
	6500 3900 6500 3100
Wire Wire Line
	6500 4400 6500 4650
Wire Wire Line
	6500 4650 6850 4650
Wire Wire Line
	6550 4750 6550 4800
Wire Wire Line
	6550 4800 4250 4800
Wire Wire Line
	6650 4450 6650 4850
Wire Wire Line
	6650 4850 6850 4850
Wire Wire Line
	6800 3250 6800 3300
Wire Wire Line
	6850 4750 6550 4750
Wire Wire Line
	8750 4150 8950 4150
Wire Wire Line
	8850 2800 9000 2800
Wire Wire Line
	8850 3100 9000 3100
Wire Wire Line
	8950 4300 8950 4150
Text Notes 5200 7050 0    60   ~ 0
P1 Connector Side
Text Notes 6850 2650 0    60   ~ 0
P2 Connector Side\n
Text Notes 7900 3900 1    60   ~ 0
Output
Text Label 2200 3200 2    60   ~ 0
A
Text Label 8750 4150 2    60   ~ 0
A
Text Label 8850 2800 2    60   ~ 0
A
$Comp
L power1:GND #PWR01
U 1 1 5952FB01
P 1300 5650
F 0 "#PWR01" H 1300 5400 50  0001 C CNN
F 1 "GND" V 1305 5522 50  0000 R CNN
F 2 "" H 1300 5650 50  0001 C CNN
F 3 "" H 1300 5650 50  0001 C CNN
	1    1300 5650
	0    1    1    0   
$EndComp
$Comp
L power:GND #PWR?
U 1 1 00000000
P 8950 4300
F 0 "#PWR?" H 8950 4050 50  0001 C CNN
F 1 "GND" H 9000 4100 50  0000 C CNN
F 2 "" H 8950 4300 50  0001 C CNN
F 3 "" H 8950 4300 50  0001 C CNN
	1    8950 4300
	1    0    0    -1  
$EndComp
$Comp
L power:GND #PWR?
U 1 1 00000000
P 8950 4700
F 0 "#PWR?" H 8950 4450 50  0001 C CNN
F 1 "GND" H 9000 4500 50  0000 C CNN
F 2 "" H 8950 4700 50  0001 C CNN
F 3 "" H 8950 4700 50  0001 C CNN
	1    8950 4700
	1    0    0    -1  
$EndComp
$Comp
L power:GND #PWR?
U 1 1 00000000
P 8950 5150
F 0 "#PWR?" H 8950 4900 50  0001 C CNN
F 1 "GND" H 9000 4950 50  0000 C CNN
F 2 "" H 8950 5150 50  0001 C CNN
F 3 "" H 8950 5150 50  0001 C CNN
	1    8950 5150
	1    0    0    -1  
$EndComp
$Comp
L power:GND #PWR?
U 1 1 00000000
P 9400 4300
F 0 "#PWR?" H 9400 4050 50  0001 C CNN
F 1 "GND" H 9450 4100 50  0000 C CNN
F 2 "" H 9400 4300 50  0001 C CNN
F 3 "" H 9400 4300 50  0001 C CNN
	1    9400 4300
	1    0    0    -1  
$EndComp
$Comp
L power:GND #PWR?
U 1 1 00000000
P 9400 4700
F 0 "#PWR?" H 9400 4450 50  0001 C CNN
F 1 "GND" H 9450 4500 50  0000 C CNN
F 2 "" H 9400 4700 50  0001 C CNN
F 3 "" H 9400 4700 50  0001 C CNN
	1    9400 4700
	1    0    0    -1  
$EndComp
$Comp
L power:GND #PWR?
U 1 1 00000000
P 9400 5150
F 0 "#PWR?" H 9400 4900 50  0001 C CNN
F 1 "GND" H 9450 4950 50  0000 C CNN
F 2 "" H 9400 5150 50  0001 C CNN
F 3 "" H 9400 5150 50  0001 C CNN
	1    9400 5150
	1    0    0    -1  
$EndComp
$Comp
L power:GND #PWR?
U 1 1 00000000
P 9800 4300
F 0 "#PWR?" H 9800 4050 50  0001 C CNN
F 1 "GND" H 9850 4100 50  0000 C CNN
F 2 "" H 9800 4300 50  0001 C CNN
F 3 "" H 9800 4300 50  0001 C CNN
	1    9800 4300
	1    0    0    -1  
$EndComp
$Comp
L power:GND #PWR?
U 1 1 00000000
P 9800 4700
F 0 "#PWR?" H 9800 4450 50  0001 C CNN
F 1 "GND" H 9850 4500 50  0000 C CNN
F 2 "" H 9800 4700 50  0001 C CNN
F 3 "" H 9800 4700 50  0001 C CNN
	1    9800 4700
	1    0    0    -1  
$EndComp
$Comp
L power:GND #PWR?
U 1 1 00000000
P 9800 5150
F 0 "#PWR?" H 9800 4900 50  0001 C CNN
F 1 "GND" H 9850 4950 50  0000 C CNN
F 2 "" H 9800 5150 50  0001 C CNN
F 3 "" H 9800 5150 50  0001 C CNN
	1    9800 5150
	1    0    0    -1  
$EndComp
$Comp
L power:GND #PWR?
U 1 1 00000000
P 10150 4300
F 0 "#PWR?" H 10150 4050 50  0001 C CNN
F 1 "GND" H 10200 4100 50  0000 C CNN
F 2 "" H 10150 4300 50  0001 C CNN
F 3 "" H 10150 4300 50  0001 C CNN
	1    10150 4300
	1    0    0    -1  
$EndComp
$Comp
L power:GND #PWR?
U 1 1 00000000
P 10150 4700
F 0 "#PWR?" H 10150 4450 50  0001 C CNN
F 1 "GND" H 10200 4500 50  0000 C CNN
F 2 "" H 10150 4700 50  0001 C CNN
F 3 "" H 10150 4700 50  0001 C CNN
	1    10150 4700
	1    0    0    -1  
$EndComp
$Comp
L power:GND #PWR?
U 1 1 00000000
P 10150 5150
F 0 "#PWR?" H 10150 4900 50  0001 C CNN
F 1 "GND" H 10200 4950 50  0000 C CNN
F 2 "" H 10150 5150 50  0001 C CNN
F 3 "" H 10150 5150 50  0001 C CNN
	1    10150 5150
	1    0    0    -1  
$EndComp
$Comp
L device:Crystal_Small Y?
U 1 1 00000000
P 2100 3300
F 0 "Y?" V 2150 3200 50  0000 R CNN
F 1 "Crystal_Small" V 2100 3200 50  0000 R CNN
F 2 "" H 2100 3300 50  0001 C CNN
F 3 "~" H 2100 3300 50  0001 C CNN
	1    2100 3300
	0    -1   -1   0   
$EndComp
$Comp
L Device:C C1
U 1 1 00000000
P 9000 2950
F 0 "C1" H 9150 3000 50  0000 L CNN
F 1 "C" H 9150 2950 50  0000 L CNN
F 2 "Capacitor_SMD:C_0805_2012Metric" H 9038 2800 50  0001 C CNN
F 3 "~" H 9000 2950 50  0001 C CNN
	1    9000 2950
	1    0    0    -1  
$EndComp
$Comp
L Device:C C?
U 1 1 00000000
P 9000 3400
F 0 "C?" H 9150 3450 50  0000 L CNN
F 1 "C" H 9150 3400 50  0000 L CNN
F 2 "Capacitor_SMD:C_0805_2012Metric" H 9038 3250 50  0001 C CNN
F 3 "~" H 9000 3400 50  0001 C CNN
	1    9000 3400
	1    0    0    -1  
$EndComp
$Comp
L Device:C C?
U 1 1 00000000
P 9000 3800
F 0 "C?" H 9150 3850 50  0000 L CNN
F 1 "C" H 9150 3800 50  0000 L CNN
F 2 "Capacitor_SMD:C_0805_2012Metric" H 9038 3650 50  0001 C CNN
F 3 "~" H 9000 3800 50  0001 C CNN
	1    9000 3800
	1    0    0    -1  
$EndComp
$Comp
L Device:C C?
U 1 1 00000000
P 9400 2950
F 0 "C?" H 9550 3000 50  0000 L CNN
F 1 "C" H 9550 2950 50  0000 L CNN
F 2 "Capacitor_SMD:C_0805_2012Metric" H 9438 2800 50  0001 C CNN
F 3 "~" H 9400 2950 50  0001 C CNN
	1    9400 2950
	1    0    0    -1  
$EndComp
$Comp
L Device:C C?
U 1 1 00000000
P 9400 3400
F 0 "C?" H 9550 3450 50  0000 L CNN
F 1 "C" H 9550 3400 50  0000 L CNN
F 2 "Capacitor_SMD:C_0805_2012Metric" H 9438 3250 50  0001 C CNN
F 3 "~" H 9400 3400 50  0001 C CNN
	1    9400 3400
	1    0    0    -1  
$EndComp
$Comp
L Device:C C?
U 1 1 00000000
P 9400 3800
F 0 "C?" H 9550 3850 50  0000 L CNN
F 1 "C" H 9550 3800 50  0000 L CNN
F 2 "Capacitor_SMD:C_0805_2012Metric" H 9438 3650 50  0001 C CNN
F 3 "~" H 9400 3800 50  0001 C CNN
	1    9400 3800
	1    0    0    -1  
$EndComp
$Comp
L Device:C C?
U 1 1 00000000
P 9800 2950
F 0 "C?" H 9950 3000 50  0000 L CNN
F 1 "C" H 9950 2950 50  0000 L CNN
F 2 "Capacitor_SMD:C_0805_2012Metric" H 9838 2800 50  0001 C CNN
F 3 "~" H 9800 2950 50  0001 C CNN
	1    9800 2950
	1    0    0    -1  
$EndComp
$Comp
L Device:C C?
U 1 1 00000000
P 9800 3400
F 0 "C?" H 9950 3450 50  0000 L CNN
F 1 "C" H 9950 3400 50  0000 L CNN
F 2 "Capacitor_SMD:C_0805_2012Metric" H 9838 3250 50  0001 C CNN
F 3 "~" H 9800 3400 50  0001 C CNN
	1    9800 3400
	1    0    0    -1  
$EndComp
$Comp
L Device:C C?
U 1 1 00000000
P 9800 3800
F 0 "C?" H 9950 3850 50  0000 L CNN
F 1 "C" H 9950 3800 50  0000 L CNN
F 2 "Capacitor_SMD:C_0805_2012Metric" H 9838 3650 50  0001 C CNN
F 3 "~" H 9800 3800 50  0001 C CNN
	1    9800 3800
	1    0    0    -1  
$EndComp
$Comp
L Device:C C?
U 1 1 00000000
P 10200 2950
F 0 "C?" H 10350 3000 50  0000 L CNN
F 1 "C" H 10350 2950 50  0000 L CNN
F 2 "Capacitor_SMD:C_0805_2012Metric" H 10238 2800 50  0001 C CNN
F 3 "~" H 10200 2950 50  0001 C CNN
	1    10200 2950
	1    0    0    -1  
$EndComp
$Comp
L Device:C C?
U 1 1 00000000
P 10200 3400
F 0 "C?" H 10350 3450 50  0000 L CNN
F 1 "C" H 10350 3400 50  0000 L CNN
F 2 "Capacitor_SMD:C_0805_2012Metric" H 10238 3250 50  0001 C CNN
F 3 "~" H 10200 3400 50  0001 C CNN
	1    10200 3400
	1    0    0    -1  
$EndComp
$Comp
L Device:C C?
U 1 1 00000000
P 10200 3800
F 0 "C?" H 10350 3850 50  0000 L CNN
F 1 "C" H 10350 3800 50  0000 L CNN
F 2 "Capacitor_SMD:C_0805_2012Metric" H 10238 3650 50  0001 C CNN
F 3 "~" H 10200 3800 50  0001 C CNN
	1    10200 3800
	1    0    0    -1  
$EndComp
$Comp
L mutli-tas-rescue:SNES_CTRL-nes_ctrl P12
U 1 1 5AA03CDE
P 4250 5850
F 0 "P12" H 4065 5987 60  0000 C CNN
F 1 "SNES_CTRL" H 4065 5881 60  0000 C CNN
F 2 "NES_CTRL:SNES_CTRL" H 4200 4750 60  0001 C CNN
F 3 "" H 4200 4750 60  0001 C CNN
	1    4250 5850
	-1   0    0    1   
$EndComp
$Comp
L mutli-tas-rescue:SNES_CTRL-nes_ctrl P22
U 1 1 5AA03B6D
P 4400 2200
F 0 "P22" H 4215 2337 60  0000 C CNN
F 1 "SNES_CTRL" H 4215 2231 60  0000 C CNN
F 2 "NES_CTRL:SNES_CTRL" H 4350 1100 60  0001 C CNN
F 3 "" H 4350 1100 60  0001 C CNN
	1    4400 2200
	1    0    0    -1  
$EndComp
$Comp
L mutli-tas-rescue:NES_CTRL-nes_ctrl P21
U 1 1 59527FFE
P 5400 1900
F 0 "P21" H 5400 1987 60  0000 C CNN
F 1 "NES_CTRL" H 5400 1881 60  0000 C CNN
F 2 "NES_CTRL:nes_ctrl" H 5400 1850 60  0001 C CNN
F 3 "" H 5400 1850 60  0001 C CNN
	1    5400 1900
	1    0    0    -1  
$EndComp
$Comp
L mutli-tas-rescue:NES_CTRL-nes_ctrl P11
U 1 1 595280C8
P 5450 5250
F 0 "P11" H 5450 5337 60  0000 C CNN
F 1 "NES_CTRL" H 5450 5231 60  0000 C CNN
F 2 "NES_CTRL:nes_ctrl" H 5450 5200 60  0001 C CNN
F 3 "" H 5450 5200 60  0001 C CNN
	1    5450 5250
	1    0    0    -1  
$EndComp
$Comp
L mutli-tas-rescue:RJ45-conn P23
U 1 1 59529293
P 6250 2350
F 0 "P23" V 6373 2830 50  0000 L CNN
F 1 "RJ45" V 6282 2830 50  0000 L CNN
F 2 "Con_RJ:RJ45_8_S" H 6250 2350 50  0001 C CNN
F 3 "" H 6250 2350 50  0001 C CNN
	1    6250 2350
	1    0    0    -1  
$EndComp
$Comp
L mutli-tas-rescue:RJ45-conn P13
U 1 1 5952928C
P 6300 5700
F 0 "P13" V 6330 6180 50  0000 L CNN
F 1 "RJ45" V 6421 6180 50  0000 L CNN
F 2 "Con_RJ:RJ45_8_S" H 6300 5700 50  0001 C CNN
F 3 "" H 6300 5700 50  0001 C CNN
	1    6300 5700
	-1   0    0    1   
$EndComp
$Comp
L mutli-tas-rescue:RJ45-conn O2
U 1 1 59527BAF
P 7250 3250
F 0 "O2" V 7280 3730 50  0000 L CNN
F 1 "RJ45" V 7371 3730 50  0000 L CNN
F 2 "Con_RJ:RJ45_8_S" H 7250 3250 50  0001 C CNN
F 3 "" H 7250 3250 50  0001 C CNN
	1    7250 3250
	0    1    1    0   
$EndComp
$Comp
L mutli-tas-rescue:RJ45-conn O1
U 1 1 59527F3A
P 7300 4800
F 0 "O1" V 7330 5280 50  0000 L CNN
F 1 "RJ45" V 7421 5280 50  0000 L CNN
F 2 "Con_RJ:RJ45_8_S" H 7300 4800 50  0001 C CNN
F 3 "" H 7300 4800 50  0001 C CNN
	1    7300 4800
	0    1    1    0   
$EndComp
$Comp
L 74xx_IEEE:74153 U1
U 1 1 00000000
P 3300 4100
F 0 "U1" H 3300 5100 50  0000 C CNN
F 1 "74153" H 3300 5000 50  0000 C CNN
F 2 "" H 3300 4100 50  0001 C CNN
F 3 "" H 3300 4100 50  0001 C CNN
	1    3300 4100
	1    0    0    -1  
$EndComp
$Comp
L 74xx_IEEE:74153 U2
U 1 1 00000000
P 4550 4100
F 0 "U2" H 4550 5100 50  0000 C CNN
F 1 "74153" H 4550 5000 50  0000 C CNN
F 2 "" H 4550 4100 50  0001 C CNN
F 3 "" H 4550 4100 50  0001 C CNN
	1    4550 4100
	1    0    0    -1  
$EndComp
$Comp
L 74xx_IEEE:74153 U3
U 1 1 00000000
P 5950 4050
F 0 "U3" H 5950 5050 50  0000 C CNN
F 1 "74153" H 5950 4950 50  0000 C CNN
F 2 "" H 5950 4050 50  0001 C CNN
F 3 "" H 5950 4050 50  0001 C CNN
	1    5950 4050
	1    0    0    -1  
$EndComp
$Comp
L MCU_Microchip_ATmega:ATmega328P-PU U?
U 1 1 00000000
P 1250 3850
F 0 "U?" H 600 3900 50  0000 R CNN
F 1 "ATmega328P-PU" H 600 3850 50  0000 R CNN
F 2 "Package_DIP:DIP-28_W7.62mm" H 1250 3850 50  0001 C CIN
F 3 "http://ww1.microchip.com/downloads/en/DeviceDoc/ATmega328_P%20AVR%20MCU%20with%20picoPower%20Technology%20Data%20Sheet%2040001984A.pdf" H 1250 3850 50  0001 C CNN
	1    1250 3850
	1    0    0    -1  
$EndComp
$EndSCHEMATC
