"Id";"Designator";"Package";"Quantity";"Designation";"Supplier and ref";
1;"R3,R8,R7,R6,R2,R1";"R_1806_4516Metric_Pad1.57x1.80mm_HandSolder";6;"R_Small_US";;;
2;"R5,R4";"R_Axial_DIN0204_L3.6mm_D1.6mm_P5.08mm_Horizontal";2;"R_Small_US";;;
3;"J8";"Jack_3.5mm_CUI_SJ1-3533NG_Horizontal";1;"AudioJack2";;;
4;"REF**";"OSHW-Logo2_7.3x6mm_SilkScreen";1;"OSHW-Logo2_7.3x6mm_SilkScreen";;;
5;"C10,C7";"C_Disc_D4.3mm_W1.9mm_P5.00mm";2;"C_Small";;;
6;"J1";"USB_C_Receptacle_GCT_USB4085";1;"USB_C_Receptacle_USB2.0";;;
7;"J5,J4,J3,J2";"RJ45_Ninigi_GE";4;"RJ45_Shielded";;;
8;"Y1";"Crystal_HC18-U_Vertical";1;"Crystal_Small";;;
9;"U7,U6";"nes_ctrl";2;"NES_CTRL";;;
10;"U5";"SSOP-20_3.9x8.7mm_P0.635mm";1;"FT231XS";;;
11;"U4";"DIP-28_W7.62mm";1;"ATmega328P-PU";;;
12;"U3,U2,U1";"SOIC-16_4.55x10.3mm_P1.27mm";3;"74153";;;
13;"SW1";"KSA_Tactile_SPST";1;"SW_Push";;;
14;"Q1";"SOT-23";1;"2N7002K";;;
15;"P22,P12";"SNES_CTRL";2;"SNES_CTRL";;;
16;"J7,J6";"PinHeader_1x06_P1.00mm_Vertical";2;"Conn_01x06";;;
17;"D3,D2,D1";"LED_D5.0mm";3;"LED_Small";;;
18;"C12,C11,C9,C8,C6,C5,C4,C3,C2";"C_1806_4516Metric_Pad1.57x1.80mm_HandSolder";9;"C_Small";;;
